design_examples/functional_sim/sim/fsm_sim.vcd
$date Sun Jul 26 21:12:53 2015 $end
$version
   "fsm_sim.vcd"
   Simulation file generated by SysPy
$end
$timescale 1 ns $end
$comment
---------------------------------------------------------------------------------------------------
-------------------------------------------------------------------0---0000------------------------
--------------------------------------------------------------------0--0----00---------------------
---------------------------------------------------------------------0--0-------00-----------------
-----------------------------------------------------00000000000000000--0---------00---------------
----------------------------------------------------00---------------0--0-----------0--------------
---------------------------------------------------00----------------0--0------------000000000000--
----00000000--------------------------000000000----00----------------0--0------------0----------00-
---00---------------------------------00------000--0-----------0000000--0----------0-------------00
--00----------------------------------00-------00--00--------00------0--0--------00--------------00
--00-----------00-------0----00000----00-------00--00-------00-------0-0------00-----------------00
---000---------00------00---00--------00------000---00------0-------0--000000--------------------00
-----000000-----00----00---00---------000000000-----00-----00------------------------------------00
---------000-----0----00----0000------000------------00---00-------------------------------------00
-----------00----00--00--------0000---00--------------0---0--------------------------------------00
-----------00-----00-0-----------00---00--------------00-00--------------------------------------00
----------00------0000-----------00---00---------------000---------------------------------------00
--000000000--------00-------000000----00---------------000---------------------------------------00
-------------------00-----------------00---------------00----------------------------------------00
------------------00------------------00---------------0-----------------------------------------00
------------------0-------------------00--------------00-----------------------------------------00
-----------------0--------------------00--------------0------------------------------------------00
---------------------------------------00--------------------------------------------------------00
----------------------------------------0000000000000000000000000000000000000000000000000000000000-
-----------------------------------------00000000000000000000000000000000000000000000000000000000--
---------------------------------------------------------------------------------------------------
$end

$scope module fsm_sim $end
$var wire 1 ! rst $end
$var wire 1 @ clk $end
$var wire 1 # start $end
$var wire 1 $ input_fifo_ready $end
$var wire 1 % output_fifo_ready $end
$var wire 6 ^ state $end
$var wire 17 & filt_out3 $end
$var wire 17 * filt_out1 $end
$var wire 17 ( filt_out2 $end
$var wire 17 ) filt_out0 $end
$var wire 32 [ sim_time $end
$var wire 32 ] data_counter $end
$upscope $end
$enddefinitions $end
#0 
1!
0#
0$
0%
b000000 ^
b00000000000000000000000000000000 [
b00000000000000000000000000000000 ]
#5
0!
#5
0$
#5
0%
#5
b000000 ^
#5
b00000000000000000000000000000000 [
#5
b00000000000000000000000000000000 ]
#6
1#
#6
0$
#6
0%
#6
b000000 ^
#6
b00000000000000000000000000000000 [
#6
b00000000000000000000000000000000 ]
#7
b00000000000000000 &
#7
b00000000000000000 *
#7
b00000000000000000 (
#8
1@
#8
0$
#8
0%
#8
b000000 ^
#8
b00000000000000000000000000000000 [
#8
b00000000000000000000000000000000 ]
#12
b00000000000000000 &
#12
b00000000000000000 *
#12
b00000000000000000 (
#13
b00000000000000000 &
#13
b00000000000000000 *
#13
b00000000000000000 (
#15
b00000000000000000 )
#15
b00000000000000000 &
#15
b00000000000000000 *
#15
b00000000000000000 (
#18
0@
#18
0$
#18
0%
#18
b000000 ^
#18
b00000000000000000000000000000000 [
#18
b00000000000000000000000000000000 ]
#20
b00000000000000000 )
#21
b00000000000000000 )
#23
b00000000000000000 )
#25
b00000000000000000 &
#25
b00000000000000000 *
#25
b00000000000000000 (
#28
1@
#28
0$
#28
0%
#28
b000001 ^
#28
b00000000000000000000000000011100 [
#28
b00000000000000000000000000000000 ]
#33
b00000000000000000 )
#35
b00000000000000000 &
#35
b00000000000000000 *
#35
b00000000000000000 (
#38
0@
#38
0$
#38
0%
#38
b000001 ^
#38
b00000000000000000000000000011100 [
#38
b00000000000000000000000000000000 ]
#43
b00000000000000000 )
#45
b00000000000000000 &
#45
b00000000000000000 *
#45
b00000000000000000 (
#48
1@
#48
1$
#48
0%
#48
b000010 ^
#48
b00000000000000000000000000110000 [
#48
b00000000000000000000000000000001 ]
#53
b00000000000000000 )
#55
b10000011101111100 &
#55
b00000000100001000 *
#55
b00000000010000100 (
#58
0@
#58
0$
#58
0%
#58
b000010 ^
#58
b00000000000000000000000000110000 [
#58
b00000000000000000000000000000000 ]
#63
b00000000010000100 )
#65
b10000011101111100 &
#65
b00000000100001000 *
#65
b00000000010000100 (
#68
1@
#68
0$
#68
0%
#68
b000001 ^
#68
b00000000000000000000000001000100 [
#68
b00000000000000000000000000000000 ]
#73
b00000000010000100 )
#75
b10000011101111100 &
#75
b00000000100001000 *
#75
b00000000010000100 (
#78
0@
#78
0$
#78
0%
#78
b000001 ^
#78
b00000000000000000000000001000100 [
#78
b00000000000000000000000000000000 ]
#83
b00000000010000100 )
#85
b10000011101111100 &
#85
b00000000100001000 *
#85
b00000000010000100 (
#88
1@
#88
1$
#88
0%
#88
b000010 ^
#88
b00000000000000000000000001011000 [
#88
b00000000000000000000000000000010 ]
#93
b00000000010000100 )
#95
b11000110011101000 &
#95
b10000010101101000 *
#95
b00000000011000100 (
#98
0@
#98
0$
#98
0%
#98
b000010 ^
#98
b00000000000000000000000001011000 [
#98
b00000000000000000000000000000000 ]
#103
b00000001011010100 )
#105
b11000110011101000 &
#105
b10000010101101000 *
#105
b00000000011000100 (
#108
1@
#108
0$
#108
0%
#108
b000001 ^
#108
b00000000000000000000000001101100 [
#108
b00000000000000000000000000000000 ]
#113
b00000001011010100 )
#115
b11000110011101000 &
#115
b10000010101101000 *
#115
b00000000011000100 (
#118
0@
#118
0$
#118
0%
#118
b000001 ^
#118
b00000000000000000000000001101100 [
#118
b00000000000000000000000000000000 ]
#123
b00000001011010100 )
#125
b11000110011101000 &
#125
b10000010101101000 *
#125
b00000000011000100 (
#128
1@
#128
0$
#128
0%
#128
b000001 ^
#128
b00000000000000000000000010000000 [
#128
b00000000000000000000000000000000 ]
#133
b00000001011010100 )
#135
b11000110011101000 &
#135
b10000010101101000 *
#135
b00000000011000100 (
#138
0@
#138
0$
#138
0%
#138
b000001 ^
#138
b00000000000000000000000010000000 [
#138
b00000000000000000000000000000000 ]
#143
b00000001011010100 )
#145
b11000110011101000 &
#145
b10000010101101000 *
#145
b00000000011000100 (
#148
1@
#148
0$
#148
0%
#148
b000001 ^
#148
b00000000000000000000000010010100 [
#148
b00000000000000000000000000000000 ]
#153
b00000001011010100 )
#155
b11000110011101000 &
#155
b10000010101101000 *
#155
b00000000011000100 (
#158
0@
#158
0$
#158
0%
#158
b000001 ^
#158
b00000000000000000000000010010100 [
#158
b00000000000000000000000000000000 ]
#163
b00000001011010100 )
#165
b11000110011101000 &
#165
b10000010101101000 *
#165
b00000000011000100 (
#168
1@
#168
0$
#168
0%
#168
b000001 ^
#168
b00000000000000000000000010101000 [
#168
b00000000000000000000000000000000 ]
#173
b00000001011010100 )
#175
b11000110011101000 &
#175
b10000010101101000 *
#175
b00000000011000100 (
#178
0@
#178
0$
#178
0%
#178
b000001 ^
#178
b00000000000000000000000010101000 [
#178
b00000000000000000000000000000000 ]
#183
b00000001011010100 )
#185
b11000110011101000 &
#185
b10000010101101000 *
#185
b00000000011000100 (
#188
1@
#188
1$
#188
0%
#188
b000010 ^
#188
b00000000000000000000000010111100 [
#188
b00000000000000000000000000000011 ]
#193
b00000001011010100 )
#195
b00010011010010100 &
#195
b11010100010010100 *
#195
b00001111101111000 (
#198
0@
#198
0$
#198
0%
#198
b000010 ^
#198
b00000000000000000000000010111100 [
#198
b00000000000000000000000000000000 ]
#203
b00000011100110100 )
#205
b00010011010010100 &
#205
b11010100010010100 *
#205
b00001111101111000 (
#208
1@
#208
0$
#208
0%
#208
b000001 ^
#208
b00000000000000000000000011010000 [
#208
b00000000000000000000000000000000 ]
#213
b00000011100110100 )
#215
b00010011010010100 &
#215
b11010100010010100 *
#215
b00001111101111000 (
#218
0@
#218
0$
#218
0%
#218
b000001 ^
#218
b00000000000000000000000011010000 [
#218
b00000000000000000000000000000000 ]
#223
b00000011100110100 )
#225
b00010011010010100 &
#225
b11010100010010100 *
#225
b00001111101111000 (
#228
1@
#228
1$
#228
0%
#228
b000010 ^
#228
b00000000000000000000000011100100 [
#228
b00000000000000000000000000000100 ]
#233
b00000011100110100 )
#235
b10101011000101100 &
#235
b10100011001011100 *
#235
b00010111101001100 (
#238
0@
#238
0$
#238
0%
#238
b000010 ^
#238
b00000000000000000000000011100100 [
#238
b00000000000000000000000000000000 ]
#243
b00000100011011000 )
#245
b10101011000101100 &
#245
b10100011001011100 *
#245
b00010111101001100 (
#248
1@
#248
0$
#248
0%
#248
b000001 ^
#248
b00000000000000000000000011111000 [
#248
b00000000000000000000000000000000 ]
#253
b00000100011011000 )
#255
b10101011000101100 &
#255
b10100011001011100 *
#255
b00010111101001100 (
#258
0@
#258
0$
#258
0%
#258
b000001 ^
#258
b00000000000000000000000011111000 [
#258
b00000000000000000000000000000000 ]
#263
b00000100011011000 )
#265
b10101011000101100 &
#265
b10100011001011100 *
#265
b00010111101001100 (
#268
1@
#268
0$
#268
0%
#268
b000001 ^
#268
b00000000000000000000000100001100 [
#268
b00000000000000000000000000000000 ]
#273
b00000100011011000 )
#275
b10101011000101100 &
#275
b10100011001011100 *
#275
b00010111101001100 (
#278
0@
#278
0$
#278
0%
#278
b000001 ^
#278
b00000000000000000000000100001100 [
#278
b00000000000000000000000000000000 ]
#283
b00000100011011000 )
#285
b10101011000101100 &
#285
b10100011001011100 *
#285
b00010111101001100 (
#288
1@
#288
0$
#288
0%
#288
b000001 ^
#288
b00000000000000000000000100100000 [
#288
b00000000000000000000000000000000 ]
#293
b00000100011011000 )
#295
b10101011000101100 &
#295
b10100011001011100 *
#295
b00010111101001100 (
#298
0@
#298
0$
#298
0%
#298
b000001 ^
#298
b00000000000000000000000100100000 [
#298
b00000000000000000000000000000000 ]
#303
b00000100011011000 )
#305
b10101011000101100 &
#305
b10100011001011100 *
#305
b00010111101001100 (
#308
1@
#308
0$
#308
0%
#308
b000001 ^
#308
b00000000000000000000000100110100 [
#308
b00000000000000000000000000000000 ]
#313
b00000100011011000 )
#315
b10101011000101100 &
#315
b10100011001011100 *
#315
b00010111101001100 (
#318
0@
#318
0$
#318
0%
#318
b000001 ^
#318
b00000000000000000000000100110100 [
#318
b00000000000000000000000000000000 ]
#323
b00000100011011000 )
#325
b10101011000101100 &
#325
b10100011001011100 *
#325
b00010111101001100 (
#328
1@
#328
0$
#328
0%
#328
b000001 ^
#328
b00000000000000000000000101001000 [
#328
b00000000000000000000000000000000 ]
#333
b00000100011011000 )
#335
b10101011000101100 &
#335
b10100011001011100 *
#335
b00010111101001100 (
#338
0@
#338
0$
#338
0%
#338
b000001 ^
#338
b00000000000000000000000101001000 [
#338
b00000000000000000000000000000000 ]
#343
b00000100011011000 )
#345
b10101011000101100 &
#345
b10100011001011100 *
#345
b00010111101001100 (
#348
1@
#348
0$
#348
0%
#348
b000001 ^
#348
b00000000000000000000000101011100 [
#348
b00000000000000000000000000000000 ]
#353
b00000100011011000 )
#355
b10101011000101100 &
#355
b10100011001011100 *
#355
b00010111101001100 (
#358
0@
#358
0$
#358
0%
#358
b000001 ^
#358
b00000000000000000000000101011100 [
#358
b00000000000000000000000000000000 ]
#363
b00000100011011000 )
#365
b10101011000101100 &
#365
b10100011001011100 *
#365
b00010111101001100 (
#368
1@
#368
0$
#368
0%
#368
b000001 ^
#368
b00000000000000000000000101110000 [
#368
b00000000000000000000000000000000 ]
#373
b00000100011011000 )
#375
b10101011000101100 &
#375
b10100011001011100 *
#375
b00010111101001100 (
#378
0@
#378
0$
#378
0%
#378
b000001 ^
#378
b00000000000000000000000101110000 [
#378
b00000000000000000000000000000000 ]
#383
b00000100011011000 )
#385
b10101011000101100 &
#385
b10100011001011100 *
#385
b00010111101001100 (
#388
1@
#388
0$
#388
0%
#388
b000001 ^
#388
b00000000000000000000000110000100 [
#388
b00000000000000000000000000000000 ]
#393
b00000100011011000 )
#395
b10101011000101100 &
#395
b10100011001011100 *
#395
b00010111101001100 (
#398
0@
#398
0$
#398
0%
#398
b000001 ^
#398
b00000000000000000000000110000100 [
#398
b00000000000000000000000000000000 ]
#403
b00000100011011000 )
#405
b10101011000101100 &
#405
b10100011001011100 *
#405
b00010111101001100 (
#408
1@
#408
0$
#408
0%
#408
b000001 ^
#408
b00000000000000000000000110011000 [
#408
b00000000000000000000000000000000 ]
#413
b00000100011011000 )
#415
b10101011000101100 &
#415
b10100011001011100 *
#415
b00010111101001100 (
#418
0@
#418
0$
#418
0%
#418
b000001 ^
#418
b00000000000000000000000110011000 [
#418
b00000000000000000000000000000000 ]
#423
b00000100011011000 )
#425
b10101011000101100 &
#425
b10100011001011100 *
#425
b00010111101001100 (
#428
1@
#428
0$
#428
0%
#428
b000001 ^
#428
b00000000000000000000000110101100 [
#428
b00000000000000000000000000000000 ]
#433
b00000100011011000 )
#435
b10101011000101100 &
#435
b10100011001011100 *
#435
b00010111101001100 (
#438
0@
#438
0$
#438
0%
#438
b000001 ^
#438
b00000000000000000000000110101100 [
#438
b00000000000000000000000000000000 ]
#443
b00000100011011000 )
#445
b10101011000101100 &
#445
b10100011001011100 *
#445
b00010111101001100 (
#448
1@
#448
0$
#448
0%
#448
b000001 ^
#448
b00000000000000000000000111000000 [
#448
b00000000000000000000000000000000 ]
#453
b00000100011011000 )
#455
b10101011000101100 &
#455
b10100011001011100 *
#455
b00010111101001100 (
#458
0@
#458
0$
#458
0%
#458
b000001 ^
#458
b00000000000000000000000111000000 [
#458
b00000000000000000000000000000000 ]
#463
b00000100011011000 )
#465
b10101011000101100 &
#465
b10100011001011100 *
#465
b00010111101001100 (
#468
1@
#468
1$
#468
0%
#468
b000010 ^
#468
b00000000000000000000000111010100 [
#468
b00000000000000000000000000000101 ]
#473
b00000100011011000 )
#475
b101011000001001111 &
#475
b101011000011101110 *
#475
b00000001001000101 (
#478
0@
#478
0$
#478
0%
#478
b000010 ^
#478
b00000000000000000000000111010100 [
#478
b00000000000000000000000000000000 ]
#483
b00000011011100001 )
#485
b101011000001001111 &
#485
b101011000011101110 *
#485
b00000001001000101 (
#488
1@
#488
0$
#488
0%
#488
b000001 ^
#488
b00000000000000000000000111101000 [
#488
b00000000000000000000000000000000 ]
#493
b00000011011100001 )
#495
b101011000001001111 &
#495
b101011000011101110 *
#495
b00000001001000101 (
#498
0@
#498
0$
#498
0%
#498
b000001 ^
#498
b00000000000000000000000111101000 [
#498
b00000000000000000000000000000000 ]
#503
b00000011011100001 )
#505
b101011000001001111 &
#505
b101011000011101110 *
#505
b00000001001000101 (
#508
1@
#508
1$
#508
0%
#508
b000010 ^
#508
b00000000000000000000000111111100 [
#508
b00000000000000000000000000000110 ]
#513
b00000011011100001 )
#515
b101000110101001101 &
#515
b11100101001101100 *
#515
b00010010101101110 (
#518
0@
#518
0$
#518
0%
#518
b000010 ^
#518
b00000000000000000000000111111100 [
#518
b00000000000000000000000000000000 ]
#523
b00000100100111010 )
#525
b101000110101001101 &
#525
b11100101001101100 *
#525
b00010010101101110 (
#528
1@
#528
0$
#528
0%
#528
b000001 ^
#528
b00000000000000000000001000010000 [
#528
b00000000000000000000000000000000 ]
#533
b00000100100111010 )
#535
b101000110101001101 &
#535
b11100101001101100 *
#535
b00010010101101110 (
#538
0@
#538
0$
#538
0%
#538
b000001 ^
#538
b00000000000000000000001000010000 [
#538
b00000000000000000000000000000000 ]
#543
b00000100100111010 )
#545
b101000110101001101 &
#545
b11100101001101100 *
#545
b00010010101101110 (
#548
1@
#548
0$
#548
0%
#548
b000001 ^
#548
b00000000000000000000001000100100 [
#548
b00000000000000000000000000000000 ]
#553
b00000100100111010 )
#555
b101000110101001101 &
#555
b11100101001101100 *
#555
b00010010101101110 (
#558
0@
#558
0$
#558
0%
#558
b000001 ^
#558
b00000000000000000000001000100100 [
#558
b00000000000000000000000000000000 ]
#563
b00000100100111010 )
#565
b101000110101001101 &
#565
b11100101001101100 *
#565
b00010010101101110 (
#568
1@
#568
1$
#568
0%
#568
b000010 ^
#568
b00000000000000000000001000111000 [
#568
b00000000000000000000000000000111 ]
#573
b00000100100111010 )
#575
b10101100101000111 &
#575
b100100100011101011 *
#575
b00011000101101111 (
#578
0@
#578
0$
#578
0%
#578
b000010 ^
#578
b00000000000000000000001000111000 [
#578
b00000000000000000000000000000000 ]
#583
b00000101100100110 )
#585
b10101100101000111 &
#585
b100100100011101011 *
#585
b00011000101101111 (
#588
1@
#588
0$
#588
0%
#588
b000001 ^
#588
b00000000000000000000001001001100 [
#588
b00000000000000000000000000000000 ]
#593
b00000101100100110 )
#595
b10101100101000111 &
#595
b100100100011101011 *
#595
b00011000101101111 (
#598
0@
#598
0$
#598
0%
#598
b000001 ^
#598
b00000000000000000000001001001100 [
#598
b00000000000000000000000000000000 ]
#603
b00000101100100110 )
#605
b10101100101000111 &
#605
b100100100011101011 *
#605
b00011000101101111 (
#608
1@
#608
1$
#608
0%
#608
b000010 ^
#608
b00000000000000000000001001100000 [
#608
b00000000000000000000000000001000 ]
#613
b00000101100100110 )
#615
b110010000010111011 &
#615
b101101011101101110 *
#615
b00001110010101010 (
#618
0@
#618
0$
#618
0%
#618
b000010 ^
#618
b00000000000000000000001001100000 [
#618
b00000000000000000000000000000000 ]
#623
b00000101010001100 )
#625
b110010000010111011 &
#625
b101101011101101110 *
#625
b00001110010101010 (
#628
1@
#628
0$
#628
0%
#628
b000001 ^
#628
b00000000000000000000001001110100 [
#628
b00000000000000000000000000000000 ]
#633
b00000101010001100 )
#635
b110010000010111011 &
#635
b101101011101101110 *
#635
b00001110010101010 (
#638
0@
#638
0$
#638
0%
#638
b000001 ^
#638
b00000000000000000000001001110100 [
#638
b00000000000000000000000000000000 ]
#643
b00000101010001100 )
#645
b110010000010111011 &
#645
b101101011101101110 *
#645
b00001110010101010 (
#648
1@
#648
0$
#648
0%
#648
b000001 ^
#648
b00000000000000000000001010001000 [
#648
b00000000000000000000000000000000 ]
#653
b00000101010001100 )
#655
b110010000010111011 &
#655
b101101011101101110 *
#655
b00001110010101010 (
#658
0@
#658
0$
#658
0%
#658
b000001 ^
#658
b00000000000000000000001010001000 [
#658
b00000000000000000000000000000000 ]
#663
b00000101010001100 )
#665
b110010000010111011 &
#665
b101101011101101110 *
#665
b00001110010101010 (
#668
1@
#668
1$
#668
0%
#668
b000010 ^
#668
b00000000000000000000001010011100 [
#668
b00000000000000000000000000001001 ]
#673
b00000101010001100 )
#675
b101010010000100101 &
#675
b101101011001110100 *
#675
b00010010000001001 (
#678
0@
#678
0$
#678
0%
#678
b000010 ^
#678
b00000000000000000000001010011100 [
#678
b00000000000000000000000000000000 ]
#683
b00000101100110111 )
#685
b101010010000100101 &
#685
b101101011001110100 *
#685
b00010010000001001 (
#688
1@
#688
0$
#688
0%
#688
b000001 ^
#688
b00000000000000000000001010110000 [
#688
b00000000000000000000000000000000 ]
#693
b00000101100110111 )
#695
b101010010000100101 &
#695
b101101011001110100 *
#695
b00010010000001001 (
#698
0@
#698
0$
#698
0%
#698
b000001 ^
#698
b00000000000000000000001010110000 [
#698
b00000000000000000000000000000000 ]
#703
b00000101100110111 )
#705
b101010010000100101 &
#705
b101101011001110100 *
#705
b00010010000001001 (
#708
1@
#708
1$
#708
0%
#708
b000010 ^
#708
b00000000000000000000001011000100 [
#708
b00000000000000000000000000001010 ]
#713
b00000101100110111 )
#715
b101101101011001111 &
#715
b100100011010000010 *
#715
b00011100010011101 (
#718
0@
#718
0$
#718
0%
#718
b000010 ^
#718
b00000000000000000000001011000100 [
#718
b00000000000000000000000000000000 ]
#723
b00000110010100101 )
#725
b101101101011001111 &
#725
b100100011010000010 *
#725
b00011100010011101 (
#728
1@
#728
0$
#728
0%
#728
b000001 ^
#728
b00000000000000000000001011011000 [
#728
b00000000000000000000000000000000 ]
#733
b00000110010100101 )
#735
b101101101011001111 &
#735
b100100011010000010 *
#735
b00011100010011101 (
#738
0@
#738
0$
#738
0%
#738
b000001 ^
#738
b00000000000000000000001011011000 [
#738
b00000000000000000000000000000000 ]
#743
b00000110010100101 )
#745
b101101101011001111 &
#745
b100100011010000010 *
#745
b00011100010011101 (
#748
1@
#748
1$
#748
0%
#748
b000010 ^
#748
b00000000000000000000001011101100 [
#748
b00000000000000000000000000001011 ]
#753
b00000110010100101 )
#755
b11001110000100100 &
#755
b111010101010000100 *
#755
b00001101111100101 (
#758
0@
#758
0$
#758
0%
#758
b000010 ^
#758
b00000000000000000000001011101100 [
#758
b00000000000000000000000000000000 ]
#763
b00000101101110111 )
#765
b11001110000100100 &
#765
b111010101010000100 *
#765
b00001101111100101 (
#768
1@
#768
0$
#768
0%
#768
b000001 ^
#768
b00000000000000000000001100000000 [
#768
b00000000000000000000000000000000 ]
#773
b00000101101110111 )
#775
b11001110000100100 &
#775
b111010101010000100 *
#775
b00001101111100101 (
#778
0@
#778
0$
#778
0%
#778
b000001 ^
#778
b00000000000000000000001100000000 [
#778
b00000000000000000000000000000000 ]
#783
b00000101101110111 )
#785
b11001110000100100 &
#785
b111010101010000100 *
#785
b00001101111100101 (
#788
1@
#788
1$
#788
0%
#788
b000010 ^
#788
b00000000000000000000001100010100 [
#788
b00000000000000000000000000001100 ]
#793
b00000101101110111 )
#795
b110000010101011101 &
#795
b10111011010000011 *
#795
b00011011110000100 (
#798
0@
#798
0$
#798
0%
#798
b000010 ^
#798
b00000000000000000000001100010100 [
#798
b00000000000000000000000000000000 ]
#803
b00000101011110001 )
#805
b110000010101011101 &
#805
b10111011010000011 *
#805
b00011011110000100 (
#808
1@
#808
0$
#808
0%
#808
b000001 ^
#808
b00000000000000000000001100101000 [
#808
b00000000000000000000000000000000 ]
#813
b00000101011110001 )
#815
b110000010101011101 &
#815
b10111011010000011 *
#815
b00011011110000100 (
#818
0@
#818
0$
#818
0%
#818
b000001 ^
#818
b00000000000000000000001100101000 [
#818
b00000000000000000000000000000000 ]
#823
b00000101011110001 )
#825
b110000010101011101 &
#825
b10111011010000011 *
#825
b00011011110000100 (
#828
1@
#828
1$
#828
0%
#828
b000010 ^
#828
b00000000000000000000001100111100 [
#828
b00000000000000000000000000001101 ]
#833
b00000101011110001 )
#835
b101101001011111100 &
#835
b101101001110000001 *
#835
b00000101100100100 (
#838
0@
#838
0$
#838
0%
#838
b000010 ^
#838
b00000000000000000000001100111100 [
#838
b00000000000000000000000000000000 ]
#843
b00000100001000111 )
#845
b101101001011111100 &
#845
b101101001110000001 *
#845
b00000101100100100 (
#848
1@
#848
0$
#848
0%
#848
b000001 ^
#848
b00000000000000000000001101010000 [
#848
b00000000000000000000000000000000 ]
#853
b00000100001000111 )
#855
b101101001011111100 &
#855
b101101001110000001 *
#855
b00000101100100100 (
#858
0@
#858
0$
#858
0%
#858
b000001 ^
#858
b00000000000000000000001101010000 [
#858
b00000000000000000000000000000000 ]
#863
b00000100001000111 )
#865
b101101001011111100 &
#865
b101101001110000001 *
#865
b00000101100100100 (
#868
1@
#868
1$
#868
0%
#868
b000010 ^
#868
b00000000000000000000001101100100 [
#868
b00000000000000000000000000001110 ]
#873
b00000100001000111 )
#875
b100001111101001010 &
#875
b100100110001000101 *
#875
b00010000010110000 (
#878
0@
#878
0$
#878
0%
#878
b000010 ^
#878
b00000000000000000000001101100100 [
#878
b00000000000000000000000000000000 ]
#883
b00000100101111111 )
#885
b100001111101001010 &
#885
b100100110001000101 *
#885
b00010000010110000 (
#888
1@
#888
0$
#888
0%
#888
b000001 ^
#888
b00000000000000000000001101111000 [
#888
b00000000000000000000000000000000 ]
#893
b00000100101111111 )
#895
b100001111101001010 &
#895
b100100110001000101 *
#895
b00010000010110000 (
#898
0@
#898
0$
#898
0%
#898
b000001 ^
#898
b00000000000000000000001101111000 [
#898
b00000000000000000000000000000000 ]
#903
b00000100101111111 )
#905
b100001111101001010 &
#905
b100100110001000101 *
#905
b00010000010110000 (
#908
1@
#908
0$
#908
0%
#908
b000001 ^
#908
b00000000000000000000001110001100 [
#908
b00000000000000000000000000000000 ]
#913
b00000100101111111 )
#915
b100001111101001010 &
#915
b100100110001000101 *
#915
b00010000010110000 (
#918
0@
#918
0$
#918
0%
#918
b000001 ^
#918
b00000000000000000000001110001100 [
#918
b00000000000000000000000000000000 ]
#923
b00000100101111111 )
#925
b100001111101001010 &
#925
b100100110001000101 *
#925
b00010000010110000 (
#928
1@
#928
0$
#928
0%
#928
b000001 ^
#928
b00000000000000000000001110100000 [
#928
b00000000000000000000000000000000 ]
#933
b00000100101111111 )
#935
b100001111101001010 &
#935
b100100110001000101 *
#935
b00010000010110000 (
#938
0@
#938
0$
#938
0%
#938
b000001 ^
#938
b00000000000000000000001110100000 [
#938
b00000000000000000000000000000000 ]
#943
b00000100101111111 )
#945
b100001111101001010 &
#945
b100100110001000101 *
#945
b00010000010110000 (
#948
1@
#948
0$
#948
0%
#948
b000001 ^
#948
b00000000000000000000001110110100 [
#948
b00000000000000000000000000000000 ]
#953
b00000100101111111 )
#955
b100001111101001010 &
#955
b100100110001000101 *
#955
b00010000010110000 (
#958
0@
#958
0$
#958
0%
#958
b000001 ^
#958
b00000000000000000000001110110100 [
#958
b00000000000000000000000000000000 ]
#963
b00000100101111111 )
#965
b100001111101001010 &
#965
b100100110001000101 *
#965
b00010000010110000 (
#968
1@
#968
0$
#968
0%
#968
b000001 ^
#968
b00000000000000000000001111001000 [
#968
b00000000000000000000000000000000 ]
#973
b00000100101111111 )
#975
b100001111101001010 &
#975
b100100110001000101 *
#975
b00010000010110000 (
#978
0@
#978
0$
#978
0%
#978
b000001 ^
#978
b00000000000000000000001111001000 [
#978
b00000000000000000000000000000000 ]
#983
b00000100101111111 )
#985
b100001111101001010 &
#985
b100100110001000101 *
#985
b00010000010110000 (
#988
1@
#988
0$
#988
0%
#988
b000001 ^
#988
b00000000000000000000001111011100 [
#988
b00000000000000000000000000000000 ]
#993
b00000100101111111 )
#995
b100001111101001010 &
#995
b100100110001000101 *
#995
b00010000010110000 (
#998
0@
#998
0$
#998
0%
#998
b000001 ^
#998
b00000000000000000000001111011100 [
#998
b00000000000000000000000000000000 ]
#1003
b00000100101111111 )
#1005
b100001111101001010 &
#1005
b100100110001000101 *
#1005
b00010000010110000 (
#1008
1@
#1008
1$
#1008
0%
#1008
b000010 ^
#1008
b00000000000000000000001111110000 [
#1008
b00000000000000000000000000001111 ]
#1013
b00000100101111111 )
#1015
b01100011001101110 &
#1015
b11000001011111111 *
#1015
b00011100011000101 (
#1018
0@
#1018
0$
#1018
0%
#1018
b000010 ^
#1018
b00000000000000000000001111110000 [
#1018
b00000000000000000000000000000000 ]
#1023
b00000101000111000 )
#1025
b01100011001101110 &
#1025
b11000001011111111 *
#1025
b00011100011000101 (
#1028
1@
#1028
0$
#1028
0%
#1028
b000001 ^
#1028
b00000000000000000000010000000100 [
#1028
b00000000000000000000000000000000 ]
#1033
b00000101000111000 )
#1035
b01100011001101110 &
#1035
b11000001011111111 *
#1035
b00011100011000101 (
#1038
0@
#1038
0$
#1038
0%
#1038
b000001 ^
#1038
b00000000000000000000010000000100 [
#1038
b00000000000000000000000000000000 ]
#1043
b00000101000111000 )
#1045
b01100011001101110 &
#1045
b11000001011111111 *
#1045
b00011100011000101 (
#1048
1@
#1048
1$
#1048
0%
#1048
b000010 ^
#1048
b00000000000000000000010000011000 [
#1048
b00000000000000000000000000010000 ]
#1053
b00000101000111000 )
#1055
b11010010110011001 &
#1055
b100010000101001010 *
#1055
b00000011101110111 (
#1058
0@
#1058
0$
#1058
0%
#1058
b000010 ^
#1058
b00000000000000000000010000011000 [
#1058
b00000000000000000000000000000000 ]
#1063
b00000010111101011 )
#1065
b11010010110011001 &
#1065
b100010000101001010 *
#1065
b00000011101110111 (
#1068
1@
#1068
0$
#1068
0%
#1068
b000001 ^
#1068
b00000000000000000000010000101100 [
#1068
b00000000000000000000000000000000 ]
#1073
b00000010111101011 )
#1075
b11010010110011001 &
#1075
b100010000101001010 *
#1075
b00000011101110111 (
#1078
0@
#1078
0$
#1078
0%
#1078
b000001 ^
#1078
b00000000000000000000010000101100 [
#1078
b00000000000000000000000000000000 ]
#1083
b00000010111101011 )
#1085
b11010010110011001 &
#1085
b100010000101001010 *
#1085
b00000011101110111 (
#1088
1@
#1088
1$
#1088
0%
#1088
b000010 ^
#1088
b00000000000000000000010001000000 [
#1088
b00000000000000000000000000010001 ]
#1093
b00000010111101011 )
#1095
b100110111011100100 &
#1095
b01100110110010111 *
#1095
b00000100110001010 (
#1098
0@
#1098
0$
#1098
0%
#1098
b000010 ^
#1098
b00000000000000000000010001000000 [
#1098
b00000000000000000000000000000000 ]
#1103
b00000001111010011 )
#1105
b100110111011100100 &
#1105
b01100110110010111 *
#1105
b00000100110001010 (
#1108
1@
#1108
0$
#1108
0%
#1108
b000001 ^
#1108
b00000000000000000000010001010100 [
#1108
b00000000000000000000000000000000 ]
#1113
b00000001111010011 )
#1115
b100110111011100100 &
#1115
b01100110110010111 *
#1115
b00000100110001010 (
#1118
0@
#1118
0$
#1118
0%
#1118
b000001 ^
#1118
b00000000000000000000010001010100 [
#1118
b00000000000000000000000000000000 ]
#1123
b00000001111010011 )
#1125
b100110111011100100 &
#1125
b01100110110010111 *
#1125
b00000100110001010 (
#1128
1@
#1128
0$
#1128
0%
#1128
b000001 ^
#1128
b00000000000000000000010001101000 [
#1128
b00000000000000000000000000000000 ]
#1133
b00000001111010011 )
#1135
b100110111011100100 &
#1135
b01100110110010111 *
#1135
b00000100110001010 (
#1138
0@
#1138
0$
#1138
0%
#1138
b000001 ^
#1138
b00000000000000000000010001101000 [
#1138
b00000000000000000000000000000000 ]
#1143
b00000001111010011 )
#1145
b100110111011100100 &
#1145
b01100110110010111 *
#1145
b00000100110001010 (
#1148
1@
#1148
0$
#1148
0%
#1148
b000001 ^
#1148
b00000000000000000000010001111100 [
#1148
b00000000000000000000000000000000 ]
#1153
b00000001111010011 )
#1155
b100110111011100100 &
#1155
b01100110110010111 *
#1155
b00000100110001010 (
#1158
0@
#1158
0$
#1158
0%
#1158
b000001 ^
#1158
b00000000000000000000010001111100 [
#1158
b00000000000000000000000000000000 ]
