design_examples/functional_sim/sim/fsm_sim.vcd
$date Thu Jul  9 17:09:00 2015 $end
$version
   "fsm_sim.vcd"
   Simulation file generated by SysPy
$end
$timescale 1 ns $end
$comment
---------------------------------------------------------------------------------------------------
-------------------------------------------------------------------0---0000------------------------
--------------------------------------------------------------------0--0----00---------------------
---------------------------------------------------------------------0--0-------00-----------------
-----------------------------------------------------00000000000000000--0---------00---------------
----------------------------------------------------00---------------0--0-----------0--------------
---------------------------------------------------00----------------0--0------------000000000000--
----00000000--------------------------000000000----00----------------0--0------------0----------00-
---00---------------------------------00------000--0-----------0000000--0----------0-------------00
--00----------------------------------00-------00--00--------00------0--0--------00--------------00
--00-----------00-------0----00000----00-------00--00-------00-------0-0------00-----------------00
---000---------00------00---00--------00------000---00------0-------0--000000--------------------00
-----000000-----00----00---00---------000000000-----00-----00------------------------------------00
---------000-----0----00----0000------000------------00---00-------------------------------------00
-----------00----00--00--------0000---00--------------0---0--------------------------------------00
-----------00-----00-0-----------00---00--------------00-00--------------------------------------00
----------00------0000-----------00---00---------------000---------------------------------------00
--000000000--------00-------000000----00---------------000---------------------------------------00
-------------------00-----------------00---------------00----------------------------------------00
------------------00------------------00---------------0-----------------------------------------00
------------------0-------------------00--------------00-----------------------------------------00
-----------------0--------------------00--------------0------------------------------------------00
---------------------------------------00--------------------------------------------------------00
----------------------------------------0000000000000000000000000000000000000000000000000000000000-
-----------------------------------------00000000000000000000000000000000000000000000000000000000--
---------------------------------------------------------------------------------------------------
$end

$scope module fsm_sim $end
$var wire 1 ! rst $end
$var wire 1 @ clk $end
$var wire 1 # start $end
$var wire 1 $ input_fifo_ready $end
$var wire 1 % output_fifo_ready $end
$var wire 6 ^ state $end
$var wire 17 & filt_out3 $end
$var wire 17 * filt_out1 $end
$var wire 17 ( filt_out2 $end
$var wire 17 ) filt_out0 $end
$var wire 32 [ sim_time $end
$var wire 32 ] data_counter $end
$upscope $end
$enddefinitions $end
#0 
1!
0#
0$
0%
b000000 ^
b00000000000000000000000000000000 [
b00000000000000000000000000000000 ]
#5
0!
#5
0$
#5
0%
#5
b000000 ^
#5
b00000000000000000000000000000000 [
#5
b00000000000000000000000000000000 ]
#6
1#
#6
0$
#6
0%
#6
b000000 ^
#6
b00000000000000000000000000000000 [
#6
b00000000000000000000000000000000 ]
#7
b00000000000000000 &
#7
b00000000000000000 *
#7
b00000000000000000 (
#8
1@
#8
0$
#8
0%
#8
b000000 ^
#8
b00000000000000000000000000000000 [
#8
b00000000000000000000000000000000 ]
#12
b00000000000000000 &
#12
b00000000000000000 *
#12
b00000000000000000 (
#13
b00000000000000000 &
#13
b00000000000000000 *
#13
b00000000000000000 (
#15
b00000000000000000 )
#15
b00000000000000000 &
#15
b00000000000000000 *
#15
b00000000000000000 (
#18
0@
#18
0$
#18
0%
#18
b000000 ^
#18
b00000000000000000000000000000000 [
#18
b00000000000000000000000000000000 ]
#20
b00000000000000000 )
#21
b00000000000000000 )
#23
b00000000000000000 )
#25
b00000000000000000 &
#25
b00000000000000000 *
#25
b00000000000000000 (
#28
1@
#28
0$
#28
0%
#28
b000001 ^
#28
b00000000000000000000000000011100 [
#28
b00000000000000000000000000000000 ]
#33
b00000000000000000 )
#35
b00000000000000000 &
#35
b00000000000000000 *
#35
b00000000000000000 (
#38
0@
#38
0$
#38
0%
#38
b000001 ^
#38
b00000000000000000000000000011100 [
#38
b00000000000000000000000000000000 ]
#43
b00000000000000000 )
#45
b00000000000000000 &
#45
b00000000000000000 *
#45
b00000000000000000 (
#48
1@
#48
0$
#48
0%
#48
b000001 ^
#48
b00000000000000000000000000110000 [
#48
b00000000000000000000000000000000 ]
#53
b00000000000000000 )
#55
b00000000000000000 &
#55
b00000000000000000 *
#55
b00000000000000000 (
#58
0@
#58
0$
#58
0%
#58
b000001 ^
#58
b00000000000000000000000000110000 [
#58
b00000000000000000000000000000000 ]
#63
b00000000000000000 )
#65
b00000000000000000 &
#65
b00000000000000000 *
#65
b00000000000000000 (
#68
1@
#68
0$
#68
0%
#68
b000001 ^
#68
b00000000000000000000000001000100 [
#68
b00000000000000000000000000000000 ]
#73
b00000000000000000 )
#75
b00000000000000000 &
#75
b00000000000000000 *
#75
b00000000000000000 (
#78
0@
#78
0$
#78
0%
#78
b000001 ^
#78
b00000000000000000000000001000100 [
#78
b00000000000000000000000000000000 ]
#83
b00000000000000000 )
#85
b00000000000000000 &
#85
b00000000000000000 *
#85
b00000000000000000 (
#88
1@
#88
1$
#88
0%
#88
b000010 ^
#88
b00000000000000000000000001011000 [
#88
b00000000000000000000000000000001 ]
#93
b00000000000000000 )
#95
b10000011101111100 &
#95
b00000000100001000 *
#95
b00000000010000100 (
#98
0@
#98
0$
#98
0%
#98
b000010 ^
#98
b00000000000000000000000001011000 [
#98
b00000000000000000000000000000000 ]
#103
b00000000010000100 )
#105
b10000011101111100 &
#105
b00000000100001000 *
#105
b00000000010000100 (
#108
1@
#108
0$
#108
0%
#108
b000001 ^
#108
b00000000000000000000000001101100 [
#108
b00000000000000000000000000000000 ]
#113
b00000000010000100 )
#115
b10000011101111100 &
#115
b00000000100001000 *
#115
b00000000010000100 (
#118
0@
#118
0$
#118
0%
#118
b000001 ^
#118
b00000000000000000000000001101100 [
#118
b00000000000000000000000000000000 ]
#123
b00000000010000100 )
#125
b10000011101111100 &
#125
b00000000100001000 *
#125
b00000000010000100 (
#128
1@
#128
1$
#128
0%
#128
b000010 ^
#128
b00000000000000000000000010000000 [
#128
b00000000000000000000000000000010 ]
#133
b00000000010000100 )
#135
b11000110011101000 &
#135
b10000010101101000 *
#135
b00000000011000100 (
#138
0@
#138
0$
#138
0%
#138
b000010 ^
#138
b00000000000000000000000010000000 [
#138
b00000000000000000000000000000000 ]
#143
b00000001011010100 )
#145
b11000110011101000 &
#145
b10000010101101000 *
#145
b00000000011000100 (
#148
1@
#148
0$
#148
0%
#148
b000001 ^
#148
b00000000000000000000000010010100 [
#148
b00000000000000000000000000000000 ]
#153
b00000001011010100 )
#155
b11000110011101000 &
#155
b10000010101101000 *
#155
b00000000011000100 (
#158
0@
#158
0$
#158
0%
#158
b000001 ^
#158
b00000000000000000000000010010100 [
#158
b00000000000000000000000000000000 ]
#163
b00000001011010100 )
#165
b11000110011101000 &
#165
b10000010101101000 *
#165
b00000000011000100 (
#168
1@
#168
1$
#168
0%
#168
b000010 ^
#168
b00000000000000000000000010101000 [
#168
b00000000000000000000000000000011 ]
#173
b00000001011010100 )
#175
b00010011010010100 &
#175
b11010100010010100 *
#175
b00001111101111000 (
#178
0@
#178
0$
#178
0%
#178
b000010 ^
#178
b00000000000000000000000010101000 [
#178
b00000000000000000000000000000000 ]
#183
b00000011100110100 )
#185
b00010011010010100 &
#185
b11010100010010100 *
#185
b00001111101111000 (
#188
1@
#188
0$
#188
0%
#188
b000001 ^
#188
b00000000000000000000000010111100 [
#188
b00000000000000000000000000000000 ]
#193
b00000011100110100 )
#195
b00010011010010100 &
#195
b11010100010010100 *
#195
b00001111101111000 (
#198
0@
#198
0$
#198
0%
#198
b000001 ^
#198
b00000000000000000000000010111100 [
#198
b00000000000000000000000000000000 ]
#203
b00000011100110100 )
#205
b00010011010010100 &
#205
b11010100010010100 *
#205
b00001111101111000 (
#208
1@
#208
0$
#208
0%
#208
b000001 ^
#208
b00000000000000000000000011010000 [
#208
b00000000000000000000000000000000 ]
#213
b00000011100110100 )
#215
b00010011010010100 &
#215
b11010100010010100 *
#215
b00001111101111000 (
#218
0@
#218
0$
#218
0%
#218
b000001 ^
#218
b00000000000000000000000011010000 [
#218
b00000000000000000000000000000000 ]
#223
b00000011100110100 )
#225
b00010011010010100 &
#225
b11010100010010100 *
#225
b00001111101111000 (
#228
1@
#228
1$
#228
0%
#228
b000010 ^
#228
b00000000000000000000000011100100 [
#228
b00000000000000000000000000000100 ]
#233
b00000011100110100 )
#235
b10101011000101100 &
#235
b10100011001011100 *
#235
b00010111101001100 (
#238
0@
#238
0$
#238
0%
#238
b000010 ^
#238
b00000000000000000000000011100100 [
#238
b00000000000000000000000000000000 ]
#243
b00000100011011000 )
#245
b10101011000101100 &
#245
b10100011001011100 *
#245
b00010111101001100 (
#248
1@
#248
0$
#248
0%
#248
b000001 ^
#248
b00000000000000000000000011111000 [
#248
b00000000000000000000000000000000 ]
#253
b00000100011011000 )
#255
b10101011000101100 &
#255
b10100011001011100 *
#255
b00010111101001100 (
#258
0@
#258
0$
#258
0%
#258
b000001 ^
#258
b00000000000000000000000011111000 [
#258
b00000000000000000000000000000000 ]
#263
b00000100011011000 )
#265
b10101011000101100 &
#265
b10100011001011100 *
#265
b00010111101001100 (
#268
1@
#268
1$
#268
0%
#268
b000010 ^
#268
b00000000000000000000000100001100 [
#268
b00000000000000000000000000000101 ]
#273
b00000100011011000 )
#275
b101011000001001111 &
#275
b101011000011101110 *
#275
b00000001001000101 (
#278
0@
#278
0$
#278
0%
#278
b000010 ^
#278
b00000000000000000000000100001100 [
#278
b00000000000000000000000000000000 ]
#283
b00000011011100001 )
#285
b101011000001001111 &
#285
b101011000011101110 *
#285
b00000001001000101 (
#288
1@
#288
0$
#288
0%
#288
b000001 ^
#288
b00000000000000000000000100100000 [
#288
b00000000000000000000000000000000 ]
#293
b00000011011100001 )
#295
b101011000001001111 &
#295
b101011000011101110 *
#295
b00000001001000101 (
#298
0@
#298
0$
#298
0%
#298
b000001 ^
#298
b00000000000000000000000100100000 [
#298
b00000000000000000000000000000000 ]
#303
b00000011011100001 )
#305
b101011000001001111 &
#305
b101011000011101110 *
#305
b00000001001000101 (
#308
1@
#308
1$
#308
0%
#308
b000010 ^
#308
b00000000000000000000000100110100 [
#308
b00000000000000000000000000000110 ]
#313
b00000011011100001 )
#315
b101000110101001101 &
#315
b11100101001101100 *
#315
b00010010101101110 (
#318
0@
#318
0$
#318
0%
#318
b000010 ^
#318
b00000000000000000000000100110100 [
#318
b00000000000000000000000000000000 ]
#323
b00000100100111010 )
#325
b101000110101001101 &
#325
b11100101001101100 *
#325
b00010010101101110 (
#328
1@
#328
0$
#328
0%
#328
b000001 ^
#328
b00000000000000000000000101001000 [
#328
b00000000000000000000000000000000 ]
#333
b00000100100111010 )
#335
b101000110101001101 &
#335
b11100101001101100 *
#335
b00010010101101110 (
#338
0@
#338
0$
#338
0%
#338
b000001 ^
#338
b00000000000000000000000101001000 [
#338
b00000000000000000000000000000000 ]
#343
b00000100100111010 )
#345
b101000110101001101 &
#345
b11100101001101100 *
#345
b00010010101101110 (
#348
1@
#348
0$
#348
0%
#348
b000001 ^
#348
b00000000000000000000000101011100 [
#348
b00000000000000000000000000000000 ]
#353
b00000100100111010 )
#355
b101000110101001101 &
#355
b11100101001101100 *
#355
b00010010101101110 (
#358
0@
#358
0$
#358
0%
#358
b000001 ^
#358
b00000000000000000000000101011100 [
#358
b00000000000000000000000000000000 ]
#363
b00000100100111010 )
#365
b101000110101001101 &
#365
b11100101001101100 *
#365
b00010010101101110 (
#368
1@
#368
0$
#368
0%
#368
b000001 ^
#368
b00000000000000000000000101110000 [
#368
b00000000000000000000000000000000 ]
#373
b00000100100111010 )
#375
b101000110101001101 &
#375
b11100101001101100 *
#375
b00010010101101110 (
#378
0@
#378
0$
#378
0%
#378
b000001 ^
#378
b00000000000000000000000101110000 [
#378
b00000000000000000000000000000000 ]
#383
b00000100100111010 )
#385
b101000110101001101 &
#385
b11100101001101100 *
#385
b00010010101101110 (
#388
1@
#388
1$
#388
0%
#388
b000010 ^
#388
b00000000000000000000000110000100 [
#388
b00000000000000000000000000000111 ]
#393
b00000100100111010 )
#395
b10101100101000111 &
#395
b100100100011101011 *
#395
b00011000101101111 (
#398
0@
#398
0$
#398
0%
#398
b000010 ^
#398
b00000000000000000000000110000100 [
#398
b00000000000000000000000000000000 ]
#403
b00000101100100110 )
#405
b10101100101000111 &
#405
b100100100011101011 *
#405
b00011000101101111 (
#408
1@
#408
0$
#408
0%
#408
b000001 ^
#408
b00000000000000000000000110011000 [
#408
b00000000000000000000000000000000 ]
#413
b00000101100100110 )
#415
b10101100101000111 &
#415
b100100100011101011 *
#415
b00011000101101111 (
#418
0@
#418
0$
#418
0%
#418
b000001 ^
#418
b00000000000000000000000110011000 [
#418
b00000000000000000000000000000000 ]
#423
b00000101100100110 )
#425
b10101100101000111 &
#425
b100100100011101011 *
#425
b00011000101101111 (
#428
1@
#428
0$
#428
0%
#428
b000001 ^
#428
b00000000000000000000000110101100 [
#428
b00000000000000000000000000000000 ]
#433
b00000101100100110 )
#435
b10101100101000111 &
#435
b100100100011101011 *
#435
b00011000101101111 (
#438
0@
#438
0$
#438
0%
#438
b000001 ^
#438
b00000000000000000000000110101100 [
#438
b00000000000000000000000000000000 ]
#443
b00000101100100110 )
#445
b10101100101000111 &
#445
b100100100011101011 *
#445
b00011000101101111 (
#448
1@
#448
1$
#448
0%
#448
b000010 ^
#448
b00000000000000000000000111000000 [
#448
b00000000000000000000000000001000 ]
#453
b00000101100100110 )
#455
b110010000010111011 &
#455
b101101011101101110 *
#455
b00001110010101010 (
#458
0@
#458
0$
#458
0%
#458
b000010 ^
#458
b00000000000000000000000111000000 [
#458
b00000000000000000000000000000000 ]
#463
b00000101010001100 )
#465
b110010000010111011 &
#465
b101101011101101110 *
#465
b00001110010101010 (
#468
1@
#468
0$
#468
0%
#468
b000001 ^
#468
b00000000000000000000000111010100 [
#468
b00000000000000000000000000000000 ]
#473
b00000101010001100 )
#475
b110010000010111011 &
#475
b101101011101101110 *
#475
b00001110010101010 (
#478
0@
#478
0$
#478
0%
#478
b000001 ^
#478
b00000000000000000000000111010100 [
#478
b00000000000000000000000000000000 ]
#483
b00000101010001100 )
#485
b110010000010111011 &
#485
b101101011101101110 *
#485
b00001110010101010 (
#488
1@
#488
0$
#488
0%
#488
b000001 ^
#488
b00000000000000000000000111101000 [
#488
b00000000000000000000000000000000 ]
#493
b00000101010001100 )
#495
b110010000010111011 &
#495
b101101011101101110 *
#495
b00001110010101010 (
#498
0@
#498
0$
#498
0%
#498
b000001 ^
#498
b00000000000000000000000111101000 [
#498
b00000000000000000000000000000000 ]
#503
b00000101010001100 )
#505
b110010000010111011 &
#505
b101101011101101110 *
#505
b00001110010101010 (
#508
1@
#508
0$
#508
0%
#508
b000001 ^
#508
b00000000000000000000000111111100 [
#508
b00000000000000000000000000000000 ]
#513
b00000101010001100 )
#515
b110010000010111011 &
#515
b101101011101101110 *
#515
b00001110010101010 (
#518
0@
#518
0$
#518
0%
#518
b000001 ^
#518
b00000000000000000000000111111100 [
#518
b00000000000000000000000000000000 ]
#523
b00000101010001100 )
#525
b110010000010111011 &
#525
b101101011101101110 *
#525
b00001110010101010 (
#528
1@
#528
0$
#528
0%
#528
b000001 ^
#528
b00000000000000000000001000010000 [
#528
b00000000000000000000000000000000 ]
#533
b00000101010001100 )
#535
b110010000010111011 &
#535
b101101011101101110 *
#535
b00001110010101010 (
#538
0@
#538
0$
#538
0%
#538
b000001 ^
#538
b00000000000000000000001000010000 [
#538
b00000000000000000000000000000000 ]
#543
b00000101010001100 )
#545
b110010000010111011 &
#545
b101101011101101110 *
#545
b00001110010101010 (
#548
1@
#548
0$
#548
0%
#548
b000001 ^
#548
b00000000000000000000001000100100 [
#548
b00000000000000000000000000000000 ]
#553
b00000101010001100 )
#555
b110010000010111011 &
#555
b101101011101101110 *
#555
b00001110010101010 (
#558
0@
#558
0$
#558
0%
#558
b000001 ^
#558
b00000000000000000000001000100100 [
#558
b00000000000000000000000000000000 ]
#563
b00000101010001100 )
#565
b110010000010111011 &
#565
b101101011101101110 *
#565
b00001110010101010 (
#568
1@
#568
1$
#568
0%
#568
b000010 ^
#568
b00000000000000000000001000111000 [
#568
b00000000000000000000000000001001 ]
#573
b00000101010001100 )
#575
b101010010000100101 &
#575
b101101011001110100 *
#575
b00010010000001001 (
#578
0@
#578
0$
#578
0%
#578
b000010 ^
#578
b00000000000000000000001000111000 [
#578
b00000000000000000000000000000000 ]
#583
b00000101100110111 )
#585
b101010010000100101 &
#585
b101101011001110100 *
#585
b00010010000001001 (
#588
1@
#588
0$
#588
0%
#588
b000001 ^
#588
b00000000000000000000001001001100 [
#588
b00000000000000000000000000000000 ]
#593
b00000101100110111 )
#595
b101010010000100101 &
#595
b101101011001110100 *
#595
b00010010000001001 (
#598
0@
#598
0$
#598
0%
#598
b000001 ^
#598
b00000000000000000000001001001100 [
#598
b00000000000000000000000000000000 ]
#603
b00000101100110111 )
#605
b101010010000100101 &
#605
b101101011001110100 *
#605
b00010010000001001 (
#608
1@
#608
0$
#608
0%
#608
b000001 ^
#608
b00000000000000000000001001100000 [
#608
b00000000000000000000000000000000 ]
#613
b00000101100110111 )
#615
b101010010000100101 &
#615
b101101011001110100 *
#615
b00010010000001001 (
#618
0@
#618
0$
#618
0%
#618
b000001 ^
#618
b00000000000000000000001001100000 [
#618
b00000000000000000000000000000000 ]
#623
b00000101100110111 )
#625
b101010010000100101 &
#625
b101101011001110100 *
#625
b00010010000001001 (
#628
1@
#628
1$
#628
0%
#628
b000010 ^
#628
b00000000000000000000001001110100 [
#628
b00000000000000000000000000001010 ]
#633
b00000101100110111 )
#635
b101101101011001111 &
#635
b100100011010000010 *
#635
b00011100010011101 (
#638
0@
#638
0$
#638
0%
#638
b000010 ^
#638
b00000000000000000000001001110100 [
#638
b00000000000000000000000000000000 ]
#643
b00000110010100101 )
#645
b101101101011001111 &
#645
b100100011010000010 *
#645
b00011100010011101 (
#648
1@
#648
0$
#648
0%
#648
b000001 ^
#648
b00000000000000000000001010001000 [
#648
b00000000000000000000000000000000 ]
#653
b00000110010100101 )
#655
b101101101011001111 &
#655
b100100011010000010 *
#655
b00011100010011101 (
#658
0@
#658
0$
#658
0%
#658
b000001 ^
#658
b00000000000000000000001010001000 [
#658
b00000000000000000000000000000000 ]
#663
b00000110010100101 )
#665
b101101101011001111 &
#665
b100100011010000010 *
#665
b00011100010011101 (
#668
1@
#668
0$
#668
0%
#668
b000001 ^
#668
b00000000000000000000001010011100 [
#668
b00000000000000000000000000000000 ]
#673
b00000110010100101 )
#675
b101101101011001111 &
#675
b100100011010000010 *
#675
b00011100010011101 (
#678
0@
#678
0$
#678
0%
#678
b000001 ^
#678
b00000000000000000000001010011100 [
#678
b00000000000000000000000000000000 ]
#683
b00000110010100101 )
#685
b101101101011001111 &
#685
b100100011010000010 *
#685
b00011100010011101 (
#688
1@
#688
1$
#688
0%
#688
b000010 ^
#688
b00000000000000000000001010110000 [
#688
b00000000000000000000000000001011 ]
#693
b00000110010100101 )
#695
b11001110000100100 &
#695
b111010101010000100 *
#695
b00001101111100101 (
#698
0@
#698
0$
#698
0%
#698
b000010 ^
#698
b00000000000000000000001010110000 [
#698
b00000000000000000000000000000000 ]
#703
b00000101101110111 )
#705
b11001110000100100 &
#705
b111010101010000100 *
#705
b00001101111100101 (
#708
1@
#708
0$
#708
0%
#708
b000001 ^
#708
b00000000000000000000001011000100 [
#708
b00000000000000000000000000000000 ]
#713
b00000101101110111 )
#715
b11001110000100100 &
#715
b111010101010000100 *
#715
b00001101111100101 (
#718
0@
#718
0$
#718
0%
#718
b000001 ^
#718
b00000000000000000000001011000100 [
#718
b00000000000000000000000000000000 ]
#723
b00000101101110111 )
#725
b11001110000100100 &
#725
b111010101010000100 *
#725
b00001101111100101 (
#728
1@
#728
0$
#728
0%
#728
b000001 ^
#728
b00000000000000000000001011011000 [
#728
b00000000000000000000000000000000 ]
#733
b00000101101110111 )
#735
b11001110000100100 &
#735
b111010101010000100 *
#735
b00001101111100101 (
#738
0@
#738
0$
#738
0%
#738
b000001 ^
#738
b00000000000000000000001011011000 [
#738
b00000000000000000000000000000000 ]
#743
b00000101101110111 )
#745
b11001110000100100 &
#745
b111010101010000100 *
#745
b00001101111100101 (
#748
1@
#748
1$
#748
0%
#748
b000010 ^
#748
b00000000000000000000001011101100 [
#748
b00000000000000000000000000001100 ]
#753
b00000101101110111 )
#755
b110000010101011101 &
#755
b10111011010000011 *
#755
b00011011110000100 (
#758
0@
#758
0$
#758
0%
#758
b000010 ^
#758
b00000000000000000000001011101100 [
#758
b00000000000000000000000000000000 ]
#763
b00000101011110001 )
#765
b110000010101011101 &
#765
b10111011010000011 *
#765
b00011011110000100 (
#768
1@
#768
0$
#768
0%
#768
b000001 ^
#768
b00000000000000000000001100000000 [
#768
b00000000000000000000000000000000 ]
#773
b00000101011110001 )
#775
b110000010101011101 &
#775
b10111011010000011 *
#775
b00011011110000100 (
#778
0@
#778
0$
#778
0%
#778
b000001 ^
#778
b00000000000000000000001100000000 [
#778
b00000000000000000000000000000000 ]
#783
b00000101011110001 )
#785
b110000010101011101 &
#785
b10111011010000011 *
#785
b00011011110000100 (
#788
1@
#788
1$
#788
0%
#788
b000010 ^
#788
b00000000000000000000001100010100 [
#788
b00000000000000000000000000001101 ]
#793
b00000101011110001 )
#795
b101101001011111100 &
#795
b101101001110000001 *
#795
b00000101100100100 (
#798
0@
#798
0$
#798
0%
#798
b000010 ^
#798
b00000000000000000000001100010100 [
#798
b00000000000000000000000000000000 ]
#803
b00000100001000111 )
#805
b101101001011111100 &
#805
b101101001110000001 *
#805
b00000101100100100 (
#808
1@
#808
0$
#808
0%
#808
b000001 ^
#808
b00000000000000000000001100101000 [
#808
b00000000000000000000000000000000 ]
#813
b00000100001000111 )
#815
b101101001011111100 &
#815
b101101001110000001 *
#815
b00000101100100100 (
#818
0@
#818
0$
#818
0%
#818
b000001 ^
#818
b00000000000000000000001100101000 [
#818
b00000000000000000000000000000000 ]
#823
b00000100001000111 )
#825
b101101001011111100 &
#825
b101101001110000001 *
#825
b00000101100100100 (
#828
1@
#828
1$
#828
0%
#828
b000010 ^
#828
b00000000000000000000001100111100 [
#828
b00000000000000000000000000001110 ]
#833
b00000100001000111 )
#835
b100001111101001010 &
#835
b100100110001000101 *
#835
b00010000010110000 (
#838
0@
#838
0$
#838
0%
#838
b000010 ^
#838
b00000000000000000000001100111100 [
#838
b00000000000000000000000000000000 ]
#843
b00000100101111111 )
#845
b100001111101001010 &
#845
b100100110001000101 *
#845
b00010000010110000 (
#848
1@
#848
0$
#848
0%
#848
b000001 ^
#848
b00000000000000000000001101010000 [
#848
b00000000000000000000000000000000 ]
#853
b00000100101111111 )
#855
b100001111101001010 &
#855
b100100110001000101 *
#855
b00010000010110000 (
#858
0@
#858
0$
#858
0%
#858
b000001 ^
#858
b00000000000000000000001101010000 [
#858
b00000000000000000000000000000000 ]
#863
b00000100101111111 )
#865
b100001111101001010 &
#865
b100100110001000101 *
#865
b00010000010110000 (
#868
1@
#868
0$
#868
0%
#868
b000001 ^
#868
b00000000000000000000001101100100 [
#868
b00000000000000000000000000000000 ]
#873
b00000100101111111 )
#875
b100001111101001010 &
#875
b100100110001000101 *
#875
b00010000010110000 (
#878
0@
#878
0$
#878
0%
#878
b000001 ^
#878
b00000000000000000000001101100100 [
#878
b00000000000000000000000000000000 ]
#883
b00000100101111111 )
#885
b100001111101001010 &
#885
b100100110001000101 *
#885
b00010000010110000 (
#888
1@
#888
1$
#888
0%
#888
b000010 ^
#888
b00000000000000000000001101111000 [
#888
b00000000000000000000000000001111 ]
#893
b00000100101111111 )
#895
b01100011001101110 &
#895
b11000001011111111 *
#895
b00011100011000101 (
#898
0@
#898
0$
#898
0%
#898
b000010 ^
#898
b00000000000000000000001101111000 [
#898
b00000000000000000000000000000000 ]
#903
b00000101000111000 )
#905
b01100011001101110 &
#905
b11000001011111111 *
#905
b00011100011000101 (
#908
1@
#908
0$
#908
0%
#908
b000001 ^
#908
b00000000000000000000001110001100 [
#908
b00000000000000000000000000000000 ]
#913
b00000101000111000 )
#915
b01100011001101110 &
#915
b11000001011111111 *
#915
b00011100011000101 (
#918
0@
#918
0$
#918
0%
#918
b000001 ^
#918
b00000000000000000000001110001100 [
#918
b00000000000000000000000000000000 ]
#923
b00000101000111000 )
#925
b01100011001101110 &
#925
b11000001011111111 *
#925
b00011100011000101 (
#928
1@
#928
0$
#928
0%
#928
b000001 ^
#928
b00000000000000000000001110100000 [
#928
b00000000000000000000000000000000 ]
#933
b00000101000111000 )
#935
b01100011001101110 &
#935
b11000001011111111 *
#935
b00011100011000101 (
#938
0@
#938
0$
#938
0%
#938
b000001 ^
#938
b00000000000000000000001110100000 [
#938
b00000000000000000000000000000000 ]
#943
b00000101000111000 )
#945
b01100011001101110 &
#945
b11000001011111111 *
#945
b00011100011000101 (
#948
1@
#948
0$
#948
0%
#948
b000001 ^
#948
b00000000000000000000001110110100 [
#948
b00000000000000000000000000000000 ]
#953
b00000101000111000 )
#955
b01100011001101110 &
#955
b11000001011111111 *
#955
b00011100011000101 (
#958
0@
#958
0$
#958
0%
#958
b000001 ^
#958
b00000000000000000000001110110100 [
#958
b00000000000000000000000000000000 ]
#963
b00000101000111000 )
#965
b01100011001101110 &
#965
b11000001011111111 *
#965
b00011100011000101 (
#968
1@
#968
1$
#968
0%
#968
b000010 ^
#968
b00000000000000000000001111001000 [
#968
b00000000000000000000000000010000 ]
#973
b00000101000111000 )
#975
b11010010110011001 &
#975
b100010000101001010 *
#975
b00000011101110111 (
#978
0@
#978
0$
#978
0%
#978
b000010 ^
#978
b00000000000000000000001111001000 [
#978
b00000000000000000000000000000000 ]
#983
b00000010111101011 )
#985
b11010010110011001 &
#985
b100010000101001010 *
#985
b00000011101110111 (
#988
1@
#988
0$
#988
0%
#988
b000001 ^
#988
b00000000000000000000001111011100 [
#988
b00000000000000000000000000000000 ]
#993
b00000010111101011 )
#995
b11010010110011001 &
#995
b100010000101001010 *
#995
b00000011101110111 (
#998
0@
#998
0$
#998
0%
#998
b000001 ^
#998
b00000000000000000000001111011100 [
#998
b00000000000000000000000000000000 ]
#1003
b00000010111101011 )
#1005
b11010010110011001 &
#1005
b100010000101001010 *
#1005
b00000011101110111 (
#1008
1@
#1008
1$
#1008
0%
#1008
b000010 ^
#1008
b00000000000000000000001111110000 [
#1008
b00000000000000000000000000010001 ]
#1013
b00000010111101011 )
#1015
b100110111011100100 &
#1015
b01100110110010111 *
#1015
b00000100110001010 (
#1018
0@
#1018
0$
#1018
0%
#1018
b000010 ^
#1018
b00000000000000000000001111110000 [
#1018
b00000000000000000000000000000000 ]
#1023
b00000001111010011 )
#1025
b100110111011100100 &
#1025
b01100110110010111 *
#1025
b00000100110001010 (
#1028
1@
#1028
0$
#1028
0%
#1028
b000001 ^
#1028
b00000000000000000000010000000100 [
#1028
b00000000000000000000000000000000 ]
#1033
b00000001111010011 )
#1035
b100110111011100100 &
#1035
b01100110110010111 *
#1035
b00000100110001010 (
#1038
0@
#1038
0$
#1038
0%
#1038
b000001 ^
#1038
b00000000000000000000010000000100 [
#1038
b00000000000000000000000000000000 ]
#1043
b00000001111010011 )
#1045
b100110111011100100 &
#1045
b01100110110010111 *
#1045
b00000100110001010 (
#1048
1@
#1048
1$
#1048
0%
#1048
b000010 ^
#1048
b00000000000000000000010000011000 [
#1048
b00000000000000000000000000010010 ]
#1053
b00000001111010011 )
#1055
b01000000000001101 &
#1055
b01110001110101010 *
#1055
b00001000011100110 (
#1058
0@
#1058
0$
#1058
0%
#1058
b000010 ^
#1058
b00000000000000000000010000011000 [
#1058
b00000000000000000000000000000000 ]
#1063
b00000010000001100 )
#1065
b01000000000001101 &
#1065
b01110001110101010 *
#1065
b00001000011100110 (
#1068
1@
#1068
0$
#1068
0%
#1068
b000001 ^
#1068
b00000000000000000000010000101100 [
#1068
b00000000000000000000000000000000 ]
#1073
b00000010000001100 )
#1075
b01000000000001101 &
#1075
b01110001110101010 *
#1075
b00001000011100110 (
#1078
0@
#1078
0$
#1078
0%
#1078
b000001 ^
#1078
b00000000000000000000010000101100 [
#1078
b00000000000000000000000000000000 ]
#1083
b00000010000001100 )
#1085
b01000000000001101 &
#1085
b01110001110101010 *
#1085
b00001000011100110 (
#1088
1@
#1088
1$
#1088
0%
#1088
b000010 ^
#1088
b00000000000000000000010001000000 [
#1088
b00000000000000000000000000010011 ]
#1093
b00000010000001100 )
#1095
b00110111111001000 &
#1095
b01101010111010010 *
#1095
b00001000011011110 (
#1098
0@
#1098
0$
#1098
0%
#1098
b000010 ^
#1098
b00000000000000000000010001000000 [
#1098
b00000000000000000000000000000000 ]
#1103
b00000001111101000 )
#1105
b00110111111001000 &
#1105
b01101010111010010 *
#1105
b00001000011011110 (
#1108
1@
#1108
0$
#1108
0%
#1108
b000001 ^
#1108
b00000000000000000000010001010100 [
#1108
b00000000000000000000000000000000 ]
#1113
b00000001111101000 )
#1115
b00110111111001000 &
#1115
b01101010111010010 *
#1115
b00001000011011110 (
#1118
0@
#1118
0$
#1118
0%
#1118
b000001 ^
#1118
b00000000000000000000010001010100 [
#1118
b00000000000000000000000000000000 ]
#1123
b00000001111101000 )
#1125
b00110111111001000 &
#1125
b01101010111010010 *
#1125
b00001000011011110 (
#1128
1@
#1128
0$
#1128
0%
#1128
b000001 ^
#1128
b00000000000000000000010001101000 [
#1128
b00000000000000000000000000000000 ]
#1133
b00000001111101000 )
#1135
b00110111111001000 &
#1135
b01101010111010010 *
#1135
b00001000011011110 (
#1138
0@
#1138
0$
#1138
0%
#1138
b000001 ^
#1138
b00000000000000000000010001101000 [
#1138
b00000000000000000000000000000000 ]
#1143
b00000001111101000 )
#1145
b00110111111001000 &
#1145
b01101010111010010 *
#1145
b00001000011011110 (
#1148
1@
#1148
1$
#1148
0%
#1148
b000010 ^
#1148
b00000000000000000000010001111100 [
#1148
b00000000000000000000000000010100 ]
#1153
b00000001111101000 )
#1155
b100011001100101111 &
#1155
b01010110111001000 *
#1155
b00000011111000010 (
#1158
0@
#1158
0$
#1158
0%
#1158
b000010 ^
#1158
b00000000000000000000010001111100 [
#1158
b00000000000000000000000000000000 ]
